{
  "result": [
    {
      "ID": "14",
      "OWNER_ID": "24",
      "OWNER_TYPE_ID": "2",
      "TYPE_ID": "3",
      "PROVIDER_ID": "TASKS",
      "PROVIDER_TYPE_ID": "TASK",
      "PROVIDER_GROUP_ID": null,
      "ASSOCIATED_ENTITY_ID": "14",
      "SUBJECT": "Клиент ждет звнонка от замерщика",
      "CREATED": "2018-07-21T12:00:33+03:00",
      "LAST_UPDATED": "2018-07-22T14:38:56+03:00",
      "START_TIME": "",
      "END_TIME": "2018-07-22T14:38:56+03:00",
      "DEADLINE": "2018-07-22T14:38:56+03:00",
      "COMPLETED": "Y",
      "STATUS": "2",
      "RESPONSIBLE_ID": "1",
      "PRIORITY": "3",
      "NOTIFY_TYPE": "0",
      "NOTIFY_VALUE": "0",
      "DESCRIPTION": "Клиент: Инна  Заявка на натяжной потолок\n+79218803526\n\nНадо сделать:\n1) позвонить клиенту\n2) Назначить дату и время замера\n3) Указать дату и время в карточке\n4) Завершить эту задачу",
      "DESCRIPTION_TYPE": "2",
      "DIRECTION": "0",
      "LOCATION": null,
      "SETTINGS": [],
      "ORIGINATOR_ID": null,
      "ORIGIN_ID": null,
      "AUTHOR_ID": "14",
      "EDITOR_ID": "1",
      "PROVIDER_PARAMS": [],
      "PROVIDER_DATA": null,
      "RESULT_MARK": "0",
      "RESULT_VALUE": null,
      "RESULT_SUM": null,
      "RESULT_CURRENCY_ID": null,
      "RESULT_STATUS": "0",
      "RESULT_STREAM": "0",
      "RESULT_SOURCE_ID": null,
      "AUTOCOMPLETE_RULE": "0"
    },
    {
      "ID": "22298",
      "OWNER_ID": "3512",
      "OWNER_TYPE_ID": "2",
      "TYPE_ID": "3",
      "PROVIDER_ID": "TASKS",
      "PROVIDER_TYPE_ID": "TASK",
      "PROVIDER_GROUP_ID": null,
      "ASSOCIATED_ENTITY_ID": "350",
      "SUBJECT": "Взять сделку в работу",
      "CREATED": "2020-09-11T11:50:37+03:00",
      "LAST_UPDATED": "2020-09-14T11:55:43+03:00",
      "START_TIME": "",
      "END_TIME": "2020-09-14T11:55:43+03:00",
      "DEADLINE": "2020-09-14T11:55:43+03:00",
      "COMPLETED": "Y",
      "STATUS": "2",
      "RESPONSIBLE_ID": "1",
      "PRIORITY": "3",
      "NOTIFY_TYPE": "0",
      "NOTIFY_VALUE": "0",
      "DESCRIPTION": "Взять сделку в работу",
      "DESCRIPTION_TYPE": "2",
      "DIRECTION": "0",
      "LOCATION": null,
      "SETTINGS": [],
      "ORIGINATOR_ID": null,
      "ORIGIN_ID": null,
      "AUTHOR_ID": "1",
      "EDITOR_ID": "1",
      "PROVIDER_PARAMS": [],
      "PROVIDER_DATA": null,
      "RESULT_MARK": "0",
      "RESULT_VALUE": null,
      "RESULT_SUM": null,
      "RESULT_CURRENCY_ID": null,
      "RESULT_STATUS": "0",
      "RESULT_STREAM": "0",
      "RESULT_SOURCE_ID": null,
      "AUTOCOMPLETE_RULE": "0"
    }
  ],
  "next": 50,
  "total": 11592,
  "time": {
    "start": 1613043110.393651,
    "finish": 1613043111.026793,
    "duration": 0.63314199447631836,
    "processing": 0.5810389518737793,
    "date_start": "2021-02-11T14:31:50+03:00",
    "date_finish": "2021-02-11T14:31:51+03:00"
  }
}


